{
    "tags": [
        "ASP.NET",
        "ASP.NET Core",
        "REST API (ASP.NET & ASP.NET Core)",
        "Angular",
        "EntityFramework",
        "EntityFramework Core",
        "Javascript",
        "Typescript",
        "HTML 5",
        "CSS",
        "jQuery",
        "SQL Server",
        "Git",
        "SubVersion",
        "Software Engineering",
        "Software Design Patter",
        "OOP",
        "Algorithms",
        "Data Structures",
        "C++",
        "বাংলা",
        "English"
    ]
}